{
  "name": "hisabee",
  "version": "0.0.1",
  "private": true,
  "scripts": {
    "android": "react-native run-android",
    "ios": "react-native run-ios",
    "start": "react-native start",
    "test": "jest",
    "lint": "eslint ."
  },
  "dependencies": {
    "react": "16.13.1",
    "react-native": "0.63.3"
  },
  "devDependencies": {
    "@babel/core": "^7.12.3",
    "@babel/runtime": "^7.12.5",
    "@react-native-community/eslint-config": "^2.0.0",
    "babel-jest": "^26.6.3",
    "eslint": "^7.13.0",
    "jest": "^26.6.3",
    "metro-react-native-babel-preset": "^0.64.0",
    "react-test-renderer": "16.13.1"
  },
  "jest": {
    "preset": "react-native"
  }
}
