{
  "dev": {
    "awscloudformation": {
      "AuthRoleName": "amplify-hisabee-dev-172240-authRole",
      "UnauthRoleArn": "arn:aws:iam::555727173329:role/amplify-hisabee-dev-172240-unauthRole",
      "AuthRoleArn": "arn:aws:iam::555727173329:role/amplify-hisabee-dev-172240-authRole",
      "Region": "ap-south-1",
      "DeploymentBucketName": "amplify-hisabee-dev-172240-deployment",
      "UnauthRoleName": "amplify-hisabee-dev-172240-unauthRole",
      "StackName": "amplify-hisabee-dev-172240",
      "StackId": "arn:aws:cloudformation:ap-south-1:555727173329:stack/amplify-hisabee-dev-172240/27573660-2033-11eb-b001-062708fd639e",
      "AmplifyAppId": "dlutrysmo088m"
    },
    "categories": {
      "auth": {
        "hisabeeb1c0bdc8": {}
      }
    }
  }
}